2-1-2 Flipbook
…
---

class: split-40
count: false
.column[.content[

```r
*df.student
```
]]
.column[.content[

```
# A tibble: 362 x 21
   Year  Gender Smoke Award HigherSAT Exercise    TV Height Weight Siblings
   <fct> <fct>  <fct> <fct> <fct>        <dbl> <int>  <int>  <int>    <int>
 1 Seni M      No    Olym Math            10     1     71    180        4
 2 Soph F      Yes   Acad Math             4     7     66    120        2
 3 Firs M      No    Nobel Math            14     5     72    208        2
 4 Juni M      No    Nobel Math             3     1     63    110        1
 5 Soph F      No    Nobel Verbal           3     3     65    150        1
 6 Soph F      No    Nobel Verbal           5     4     65    114        2
 7 Firs F      No    Olym Math            10    10     66    128        1
 8 Soph M      No    Olym Math            13     8     74    235        1
 9 Juni F      No    Nobel Verbal           3     6     61     NA        2
10 Firs F      No    Nobel Math            12     1     60    115        7
#  with 352 more rows, and 11 more variables: BirthOrder <int>,
#   VerbalSAT <int>, MathSAT <int>, SAT <int>, GPA <dbl>, Pulse <int>,
#   Piercings <int>, OnlyChild <fct>, FirstBorn <fct>, GPA3.0 <fct>,
#   SAT1200 <fct>
```
…
---

class: split-40
count: false
.column[.content[

```r
*df.student
```
]]
.column[.content[

```
# A tibble: 362 x 21
   Year  Gender Smoke Award HigherSAT Exercise    TV Height Weight Siblings
   <fct> <fct>  <fct> <fct> <fct>        <dbl> <int>  <int>  <int>    <int>
 1 Seni M      No    Olym Math            10     1     71    180        4
 2 Soph F      Yes   Acad Math             4     7     66    120        2
 3 Firs M      No    Nobel Math            14     5     72    208        2
 4 Juni M      No    Nobel Math             3     1     63    110        1
 5 Soph F      No    Nobel Verbal           3     3     65    150        1
 6 Soph F      No    Nobel Verbal           5     4     65    114        2
 7 Firs F      No    Olym Math            10    10     66    128        1
 8 Soph M      No    Olym Math            13     8     74    235        1
 9 Juni F      No    Nobel Verbal           3     6     61     NA        2
10 Firs F      No    Nobel Math            12     1     60    115        7
#  with 352 more rows, and 11 more variables: BirthOrder <int>,
#   VerbalSAT <int>, MathSAT <int>, SAT <int>, GPA <dbl>, Pulse <int>,
#   Piercings <int>, OnlyChild <fct>, FirstBorn <fct>, GPA3.0 <fct>,
#   SAT1200 <fct>
```
]]
---
class: split-40
count: false
.column[.content[

```r
df.student %>%  
* filter(!is.na(FirstBorn))
```
]]
.column[.content[

```
# A tibble: 359 x 21
   Year  Gender Smoke Award HigherSAT Exercise    TV Height Weight Siblings
   <fct> <fct>  <fct> <fct> <fct>        <dbl> <int>  <int>  <int>    <int>
 1 Seni M      No    Olym Math            10     1     71    180        4
 2 Soph F      Yes   Acad Math             4     7     66    120        2
 3 Firs M      No    Nobel Math            14     5     72    208        2
 4 Juni M      No    Nobel Math             3     1     63    110        1
 5 Soph F      No    Nobel Verbal           3     3     65    150        1
 6 Soph F      No    Nobel Verbal           5     4     65    114        2
 7 Firs F      No    Olym Math            10    10     66    128        1
 8 Soph M      No    Olym Math            13     8     74    235        1
 9 Juni F      No    Nobel Verbal           3     6     61     NA        2
10 Firs F      No    Nobel Math            12     1     60    115        7
#  with 349 more rows, and 11 more variables: BirthOrder <int>,
#   VerbalSAT <int>, MathSAT <int>, SAT <int>, GPA <dbl>, Pulse <int>,
#   Piercings <int>, OnlyChild <fct>, FirstBorn <fct>, GPA3.0 <fct>,
#   SAT1200 <fct>
```
…
---

class: split-40
count: false
.column[.content[

```r
*df.student
```
]]
.column[.content[

```
# A tibble: 362 x 21
   Year  Gender Smoke Award HigherSAT Exercise    TV Height Weight Siblings
   <fct> <fct>  <fct> <fct> <fct>        <dbl> <int>  <int>  <int>    <int>
 1 Seni M      No    Olym Math            10     1     71    180        4
 2 Soph F      Yes   Acad Math             4     7     66    120        2
 3 Firs M      No    Nobel Math            14     5     72    208        2
 4 Juni M      No    Nobel Math             3     1     63    110        1
 5 Soph F      No    Nobel Verbal           3     3     65    150        1
 6 Soph F      No    Nobel Verbal           5     4     65    114        2
 7 Firs F      No    Olym Math            10    10     66    128        1
 8 Soph M      No    Olym Math            13     8     74    235        1
 9 Juni F      No    Nobel Verbal           3     6     61     NA        2
10 Firs F      No    Nobel Math            12     1     60    115        7
#  with 352 more rows, and 11 more variables: BirthOrder <int>,
#   VerbalSAT <int>, MathSAT <int>, SAT <int>, GPA <dbl>, Pulse <int>,
#   Piercings <int>, OnlyChild <fct>, FirstBorn <fct>, GPA3.0 <fct>,
#   SAT1200 <fct>
```
]]
---
class: split-40
count: false
.column[.content[

```r
df.student %>%  
* filter(!is.na(FirstBorn))
```
]]
.column[.content[

```
# A tibble: 359 x 21
   Year  Gender Smoke Award HigherSAT Exercise    TV Height Weight Siblings
   <fct> <fct>  <fct> <fct> <fct>        <dbl> <int>  <int>  <int>    <int>
 1 Seni M      No    Olym Math            10     1     71    180        4
 2 Soph F      Yes   Acad Math             4     7     66    120        2
 3 Firs M      No    Nobel Math            14     5     72    208        2
 4 Juni M      No    Nobel Math             3     1     63    110        1
 5 Soph F      No    Nobel Verbal           3     3     65    150        1
 6 Soph F      No    Nobel Verbal           5     4     65    114        2
 7 Firs F      No    Olym Math            10    10     66    128        1
 8 Soph M      No    Olym Math            13     8     74    235        1
 9 Juni F      No    Nobel Verbal           3     6     61     NA        2
10 Firs F      No    Nobel Math            12     1     60    115        7
#  with 349 more rows, and 11 more variables: BirthOrder <int>,
#   VerbalSAT <int>, MathSAT <int>, SAT <int>, GPA <dbl>, Pulse <int>,
#   Piercings <int>, OnlyChild <fct>, FirstBorn <fct>, GPA3.0 <fct>,
#   SAT1200 <fct>
```
…
---

class: split-40
count: false
.column[.content[

```r
*df.student
```
]]
.column[.content[

```
# A tibble: 362 x 21
   Year  Gender Smoke Award HigherSAT Exercise    TV Height Weight Siblings
   <fct> <fct>  <fct> <fct> <fct>        <dbl> <int>  <int>  <int>    <int>
 1 Seni M      No    Olym Math            10     1     71    180        4
 2 Soph F      Yes   Acad Math             4     7     66    120        2
 3 Firs M      No    Nobel Math            14     5     72    208        2
 4 Juni M      No    Nobel Math             3     1     63    110        1
 5 Soph F      No    Nobel Verbal           3     3     65    150        1
 6 Soph F      No    Nobel Verbal           5     4     65    114        2
 7 Firs F      No    Olym Math            10    10     66    128        1
 8 Soph M      No    Olym Math            13     8     74    235        1
 9 Juni F      No    Nobel Verbal           3     6     61     NA        2
10 Firs F      No    Nobel Math            12     1     60    115        7
#  with 352 more rows, and 11 more variables: BirthOrder <int>,
#   VerbalSAT <int>, MathSAT <int>, SAT <int>, GPA <dbl>, Pulse <int>,
#   Piercings <int>, OnlyChild <fct>, FirstBorn <fct>, GPA3.0 <fct>,
#   SAT1200 <fct>
```
]]
---
class: split-40
count: false
.column[.content[

```r
df.student %>%  
* filter(!is.na(FirstBorn))
```
]]
.column[.content[

```
# A tibble: 359 x 21
   Year  Gender Smoke Award HigherSAT Exercise    TV Height Weight Siblings
   <fct> <fct>  <fct> <fct> <fct>        <dbl> <int>  <int>  <int>    <int>
 1 Seni M      No    Olym Math            10     1     71    180        4
 2 Soph F      Yes   Acad Math             4     7     66    120        2
 3 Firs M      No    Nobel Math            14     5     72    208        2
 4 Juni M      No    Nobel Math             3     1     63    110        1
 5 Soph F      No    Nobel Verbal           3     3     65    150        1
 6 Soph F      No    Nobel Verbal           5     4     65    114        2
 7 Firs F      No    Olym Math            10    10     66    128        1
 8 Soph M      No    Olym Math            13     8     74    235        1
 9 Juni F      No    Nobel Verbal           3     6     61     NA        2
10 Firs F      No    Nobel Math            12     1     60    115        7
#  with 349 more rows, and 11 more variables: BirthOrder <int>,
#   VerbalSAT <int>, MathSAT <int>, SAT <int>, GPA <dbl>, Pulse <int>,
#   Piercings <int>, OnlyChild <fct>, FirstBorn <fct>, GPA3.0 <fct>,
#   SAT1200 <fct>
```
…
---

class: split-40
count: false
.column[.content[

```r
*df.student
```
]]
.column[.content[

```
# A tibble: 362 x 21
   Year  Gender Smoke Award HigherSAT Exercise    TV Height Weight Siblings
   <fct> <fct>  <fct> <fct> <fct>        <dbl> <int>  <int>  <int>    <int>
 1 Seni M      No    Olym Math            10     1     71    180        4
 2 Soph F      Yes   Acad Math             4     7     66    120        2
 3 Firs M      No    Nobel Math            14     5     72    208        2
 4 Juni M      No    Nobel Math             3     1     63    110        1
 5 Soph F      No    Nobel Verbal           3     3     65    150        1
 6 Soph F      No    Nobel Verbal           5     4     65    114        2
 7 Firs F      No    Olym Math            10    10     66    128        1
 8 Soph M      No    Olym Math            13     8     74    235        1
 9 Juni F      No    Nobel Verbal           3     6     61     NA        2
10 Firs F      No    Nobel Math            12     1     60    115        7
#  with 352 more rows, and 11 more variables: BirthOrder <int>,
#   VerbalSAT <int>, MathSAT <int>, SAT <int>, GPA <dbl>, Pulse <int>,
#   Piercings <int>, OnlyChild <fct>, FirstBorn <fct>, GPA3.0 <fct>,
#   SAT1200 <fct>
```
]]
---
class: split-40
count: false
.column[.content[

```r
df.student %>%  
* filter(!is.na(FirstBorn) & !is.na(GPA3.0))
```
]]
.column[.content[

```
# A tibble: 342 x 21
   Year  Gender Smoke Award HigherSAT Exercise    TV Height Weight Siblings
   <fct> <fct>  <fct> <fct> <fct>        <dbl> <int>  <int>  <int>    <int>
 1 Seni M      No    Olym Math            10     1     71    180        4
 2 Soph F      Yes   Acad Math             4     7     66    120        2
 3 Firs M      No    Nobel Math            14     5     72    208        2
 4 Juni M      No    Nobel Math             3     1     63    110        1
 5 Soph F      No    Nobel Verbal           3     3     65    150        1
 6 Soph F      No    Nobel Verbal           5     4     65    114        2
 7 Firs F      No    Olym Math            10    10     66    128        1
 8 Soph M      No    Olym Math            13     8     74    235        1
 9 Juni F      No    Nobel Verbal           3     6     61     NA        2
10 Firs F      No    Nobel Math            12     1     60    115        7
#  with 332 more rows, and 11 more variables: BirthOrder <int>,
#   VerbalSAT <int>, MathSAT <int>, SAT <int>, GPA <dbl>, Pulse <int>,
#   Piercings <int>, OnlyChild <fct>, FirstBorn <fct>, GPA3.0 <fct>,
#   SAT1200 <fct>
```
…
---

class: split-40
count: false
.column[.content[

```r
*df.student
```
]]
.column[.content[

```
# A tibble: 362 x 21
   Year  Gender Smoke Award HigherSAT Exercise    TV Height Weight Siblings
   <fct> <fct>  <fct> <fct> <fct>        <dbl> <int>  <int>  <int>    <int>
 1 Seni M      No    Olym Math            10     1     71    180        4
 2 Soph F      Yes   Acad Math             4     7     66    120        2
 3 Firs M      No    Nobel Math            14     5     72    208        2
 4 Juni M      No    Nobel Math             3     1     63    110        1
 5 Soph F      No    Nobel Verbal           3     3     65    150        1
 6 Soph F      No    Nobel Verbal           5     4     65    114        2
 7 Firs F      No    Olym Math            10    10     66    128        1
 8 Soph M      No    Olym Math            13     8     74    235        1
 9 Juni F      No    Nobel Verbal           3     6     61     NA        2
10 Firs F      No    Nobel Math            12     1     60    115        7
#  with 352 more rows, and 11 more variables: BirthOrder <int>,
#   VerbalSAT <int>, MathSAT <int>, SAT <int>, GPA <dbl>, Pulse <int>,
#   Piercings <int>, OnlyChild <fct>, FirstBorn <fct>, GPA3.0 <fct>,
#   SAT1200 <fct>
```
]]
---
class: split-40
count: false
.column[.content[

```r
df.student %>%  
* filter(!is.na(FirstBorn) & !is.na(GPA3.0))
```
]]
.column[.content[

```
# A tibble: 342 x 21
   Year  Gender Smoke Award HigherSAT Exercise    TV Height Weight Siblings
   <fct> <fct>  <fct> <fct> <fct>        <dbl> <int>  <int>  <int>    <int>
 1 Seni M      No    Olym Math            10     1     71    180        4
 2 Soph F      Yes   Acad Math             4     7     66    120        2
 3 Firs M      No    Nobel Math            14     5     72    208        2
 4 Juni M      No    Nobel Math             3     1     63    110        1
 5 Soph F      No    Nobel Verbal           3     3     65    150        1
 6 Soph F      No    Nobel Verbal           5     4     65    114        2
 7 Firs F      No    Olym Math            10    10     66    128        1
 8 Soph M      No    Olym Math            13     8     74    235        1
 9 Juni F      No    Nobel Verbal           3     6     61     NA        2
10 Firs F      No    Nobel Math            12     1     60    115        7
#  with 332 more rows, and 11 more variables: BirthOrder <int>,
#   VerbalSAT <int>, MathSAT <int>, SAT <int>, GPA <dbl>, Pulse <int>,
#   Piercings <int>, OnlyChild <fct>, FirstBorn <fct>, GPA3.0 <fct>,
#   SAT1200 <fct>
```
…
