2-4 Flipbook
…
---

class: split-40
count: false
.column[.content[

```r
*df.retail
```
]]
.column[.content[

```
# A tibble: 144 x 4
   Month  Year Sales       z
   <fct> <int> <dbl>   <dbl>
 1 Jan    2000  295. -0.0484
 2 Feb    2000  252. -1.16  
 3 Mar    2000  246. -1.34  
 4 Apr    2000  244  -1.38  
 5 May    2000  258. -1.01  
 6 June   2000  245. -1.36  
 7 July   2000  256. -1.08  
 8 Aug    2000  258. -1.01  
 9 Sep    2000  240. -1.50  
10 Oct    2000  254. -1.11  
#  with 134 more rows
```
…
---

class: split-40
count: false
.column[.content[

```r
*StudentSurvey
```
]]
.column[.content[

```
# A tibble: 362 x 17
   Year  Gender Smoke Award HigherSAT Exercise    TV Height Weight Siblings
   <fct> <fct>  <fct> <fct> <fct>        <dbl> <int>  <int>  <int>    <int>
 1 Seni M      No    Olym Math            10     1     71    180        4
 2 Soph F      Yes   Acad Math             4     7     66    120        2
 3 Firs M      No    Nobel Math            14     5     72    208        2
 4 Juni M      No    Nobel Math             3     1     63    110        1
 5 Soph F      No    Nobel Verbal           3     3     65    150        1
 6 Soph F      No    Nobel Verbal           5     4     65    114        2
 7 Firs F      No    Olym Math            10    10     66    128        1
 8 Soph M      No    Olym Math            13     8     74    235        1
 9 Juni F      No    Nobel Verbal           3     6     61     NA        2
10 Firs F      No    Nobel Math            12     1     60    115        7
#  with 352 more rows, and 7 more variables: BirthOrder <int>,
#   VerbalSAT <int>, MathSAT <int>, SAT <int>, GPA <dbl>, Pulse <int>,
#   Piercings <int>
```
…
---

class: split-40
count: false
.column[.content[

```r
*StudentSurvey
```
]]
.column[.content[

```
# A tibble: 362 x 17
   Year  Gender Smoke Award HigherSAT Exercise    TV Height Weight Siblings
   <fct> <fct>  <fct> <fct> <fct>        <dbl> <int>  <int>  <int>    <int>
 1 Seni M      No    Olym Math            10     1     71    180        4
 2 Soph F      Yes   Acad Math             4     7     66    120        2
 3 Firs M      No    Nobel Math            14     5     72    208        2
 4 Juni M      No    Nobel Math             3     1     63    110        1
 5 Soph F      No    Nobel Verbal           3     3     65    150        1
 6 Soph F      No    Nobel Verbal           5     4     65    114        2
 7 Firs F      No    Olym Math            10    10     66    128        1
 8 Soph M      No    Olym Math            13     8     74    235        1
 9 Juni F      No    Nobel Verbal           3     6     61     NA        2
10 Firs F      No    Nobel Math            12     1     60    115        7
#  with 352 more rows, and 7 more variables: BirthOrder <int>,
#   VerbalSAT <int>, MathSAT <int>, SAT <int>, GPA <dbl>, Pulse <int>,
#   Piercings <int>
```
]]
---
class: split-40
count: false
.column[.content[

```r
StudentSurvey %>%  
* group_by(Gender)
```
]]
.column[.content[

```
# A tibble: 362 x 17
# Groups:   Gender [2]
   Year  Gender Smoke Award HigherSAT Exercise    TV Height Weight Siblings
   <fct> <fct>  <fct> <fct> <fct>        <dbl> <int>  <int>  <int>    <int>
 1 Seni M      No    Olym Math            10     1     71    180        4
 2 Soph F      Yes   Acad Math             4     7     66    120        2
 3 Firs M      No    Nobel Math            14     5     72    208        2
 4 Juni M      No    Nobel Math             3     1     63    110        1
 5 Soph F      No    Nobel Verbal           3     3     65    150        1
 6 Soph F      No    Nobel Verbal           5     4     65    114        2
 7 Firs F      No    Olym Math            10    10     66    128        1
 8 Soph M      No    Olym Math            13     8     74    235        1
 9 Juni F      No    Nobel Verbal           3     6     61     NA        2
10 Firs F      No    Nobel Math            12     1     60    115        7
#  with 352 more rows, and 7 more variables: BirthOrder <int>,
#   VerbalSAT <int>, MathSAT <int>, SAT <int>, GPA <dbl>, Pulse <int>,
#   Piercings <int>
```
…
---

class: split-40
count: false
.column[.content[

```r
*StudentSurvey
```
]]
.column[.content[

```
# A tibble: 362 x 17
   Year  Gender Smoke Award HigherSAT Exercise    TV Height Weight Siblings
   <fct> <fct>  <fct> <fct> <fct>        <dbl> <int>  <int>  <int>    <int>
 1 Seni M      No    Olym Math            10     1     71    180        4
 2 Soph F      Yes   Acad Math             4     7     66    120        2
 3 Firs M      No    Nobel Math            14     5     72    208        2
 4 Juni M      No    Nobel Math             3     1     63    110        1
 5 Soph F      No    Nobel Verbal           3     3     65    150        1
 6 Soph F      No    Nobel Verbal           5     4     65    114        2
 7 Firs F      No    Olym Math            10    10     66    128        1
 8 Soph M      No    Olym Math            13     8     74    235        1
 9 Juni F      No    Nobel Verbal           3     6     61     NA        2
10 Firs F      No    Nobel Math            12     1     60    115        7
#  with 352 more rows, and 7 more variables: BirthOrder <int>,
#   VerbalSAT <int>, MathSAT <int>, SAT <int>, GPA <dbl>, Pulse <int>,
#   Piercings <int>
```
…
