2-5 Flipbook
…
---

class: split-40
count: false
.column[.content[

```r
*RestaurantTips
```
]]
.column[.content[

```
# A tibble: 157 x 7
    Bill   Tip Credit Guests Day   Server PctTip
   <dbl> <dbl> <fct>   <int> <fct> <fct>   <dbl>
 1  23.7 10    n           2 f     A        42.2
 2  36.1  7    n           3 f     B        19.4
 3  32.0  5.01 y           2 f     A        15.7
 4  17.4  3.61 y           2 f     B        20.8
 5  15.4  3    n           2 f     B        19.5
 6  18.6  2.5  n           2 f     A        13.4
 7  21.6  3.44 n           2 f     B        16  
 8  19.6  2.42 n           2 f     A        12.4
 9  23.6  3    n           2 f     A        12.7
10  18.7  2    n           2 f     B        10.7
#  with 147 more rows
```
…
---

class: split-40
count: false
.column[.content[

```r
*RestaurantTips
```
]]
.column[.content[

```
# A tibble: 157 x 7
    Bill   Tip Credit Guests Day   Server PctTip
   <dbl> <dbl> <fct>   <int> <fct> <fct>   <dbl>
 1  23.7 10    n           2 f     A        42.2
 2  36.1  7    n           3 f     B        19.4
 3  32.0  5.01 y           2 f     A        15.7
 4  17.4  3.61 y           2 f     B        20.8
 5  15.4  3    n           2 f     B        19.5
 6  18.6  2.5  n           2 f     A        13.4
 7  21.6  3.44 n           2 f     B        16  
 8  19.6  2.42 n           2 f     A        12.4
 9  23.6  3    n           2 f     A        12.7
10  18.7  2    n           2 f     B        10.7
#  with 147 more rows
```
…
---

class: split-40
count: false
.column[.content[

```r
*RestaurantTips
```
]]
.column[.content[

```
# A tibble: 157 x 7
    Bill   Tip Credit Guests Day   Server PctTip
   <dbl> <dbl> <fct>   <int> <fct> <fct>   <dbl>
 1  23.7 10    n           2 f     A        42.2
 2  36.1  7    n           3 f     B        19.4
 3  32.0  5.01 y           2 f     A        15.7
 4  17.4  3.61 y           2 f     B        20.8
 5  15.4  3    n           2 f     B        19.5
 6  18.6  2.5  n           2 f     A        13.4
 7  21.6  3.44 n           2 f     B        16  
 8  19.6  2.42 n           2 f     A        12.4
 9  23.6  3    n           2 f     A        12.7
10  18.7  2    n           2 f     B        10.7
#  with 147 more rows
```
…
---

class: split-40
count: false
.column[.content[

```r
*RestaurantTips
```
]]
.column[.content[

```
# A tibble: 157 x 7
    Bill   Tip Credit Guests Day   Server PctTip
   <dbl> <dbl> <fct>   <int> <fct> <fct>   <dbl>
 1  23.7 10    n           2 f     A        42.2
 2  36.1  7    n           3 f     B        19.4
 3  32.0  5.01 y           2 f     A        15.7
 4  17.4  3.61 y           2 f     B        20.8
 5  15.4  3    n           2 f     B        19.5
 6  18.6  2.5  n           2 f     A        13.4
 7  21.6  3.44 n           2 f     B        16  
 8  19.6  2.42 n           2 f     A        12.4
 9  23.6  3    n           2 f     A        12.7
10  18.7  2    n           2 f     B        10.7
#  with 147 more rows
```
…
---

class: split-40
count: false
.column[.content[

```r
*RestaurantTips
```
]]
.column[.content[

```
# A tibble: 157 x 7
    Bill   Tip Credit Guests Day   Server PctTip
   <dbl> <dbl> <fct>   <int> <fct> <fct>   <dbl>
 1  23.7 10    n           2 f     A        42.2
 2  36.1  7    n           3 f     B        19.4
 3  32.0  5.01 y           2 f     A        15.7
 4  17.4  3.61 y           2 f     B        20.8
 5  15.4  3    n           2 f     B        19.5
 6  18.6  2.5  n           2 f     A        13.4
 7  21.6  3.44 n           2 f     B        16  
 8  19.6  2.42 n           2 f     A        12.4
 9  23.6  3    n           2 f     A        12.7
10  18.7  2    n           2 f     B        10.7
#  with 147 more rows
```
…
---

class: split-40
count: false
.column[.content[

```r
*RestaurantTips
```
]]
.column[.content[

```
# A tibble: 157 x 7
    Bill   Tip Credit Guests Day   Server PctTip
   <dbl> <dbl> <fct>   <int> <fct> <fct>   <dbl>
 1  23.7 10    n           2 f     A        42.2
 2  36.1  7    n           3 f     B        19.4
 3  32.0  5.01 y           2 f     A        15.7
 4  17.4  3.61 y           2 f     B        20.8
 5  15.4  3    n           2 f     B        19.5
 6  18.6  2.5  n           2 f     A        13.4
 7  21.6  3.44 n           2 f     B        16  
 8  19.6  2.42 n           2 f     A        12.4
 9  23.6  3    n           2 f     A        12.7
10  18.7  2    n           2 f     B        10.7
#  with 147 more rows
```
…
---

class: split-40
count: false
.column[.content[

```r
*RestaurantTips
```
]]
.column[.content[

```
# A tibble: 157 x 7
    Bill   Tip Credit Guests Day   Server PctTip
   <dbl> <dbl> <fct>   <int> <fct> <fct>   <dbl>
 1  23.7 10    n           2 f     A        42.2
 2  36.1  7    n           3 f     B        19.4
 3  32.0  5.01 y           2 f     A        15.7
 4  17.4  3.61 y           2 f     B        20.8
 5  15.4  3    n           2 f     B        19.5
 6  18.6  2.5  n           2 f     A        13.4
 7  21.6  3.44 n           2 f     B        16  
 8  19.6  2.42 n           2 f     A        12.4
 9  23.6  3    n           2 f     A        12.7
10  18.7  2    n           2 f     B        10.7
#  with 147 more rows
```
…
---

class: split-40
count: false
.column[.content[

```r
*RestaurantTips
```
]]
.column[.content[

```
# A tibble: 157 x 7
    Bill   Tip Credit Guests Day   Server PctTip
   <dbl> <dbl> <fct>   <int> <fct> <fct>   <dbl>
 1  23.7 10    n           2 f     A        42.2
 2  36.1  7    n           3 f     B        19.4
 3  32.0  5.01 y           2 f     A        15.7
 4  17.4  3.61 y           2 f     B        20.8
 5  15.4  3    n           2 f     B        19.5
 6  18.6  2.5  n           2 f     A        13.4
 7  21.6  3.44 n           2 f     B        16  
 8  19.6  2.42 n           2 f     A        12.4
 9  23.6  3    n           2 f     A        12.7
10  18.7  2    n           2 f     B        10.7
#  with 147 more rows
```
…
```r
RestaurantTips %>%  
* mutate(pred = predict(lm.restaurant),
*        resid = residuals(lm.restaurant))
```
]]
.column[.content[

```
# A tibble: 157 x 9
    Bill   Tip Credit Guests Day   Server PctTip  pred  resid
   <dbl> <dbl> <fct>   <int> <fct> <fct>   <dbl> <dbl>  <dbl>
 1  23.7 10    n           2 f     A        42.2  4.03  5.97 
 2  36.1  7    n           3 f     B        19.4  6.29  0.712
 3  32.0  5.01 y           2 f     A        15.7  5.54 -0.527
 4  17.4  3.61 y           2 f     B        20.8  2.88  0.734
 5  15.4  3    n           2 f     B        19.5  2.52  0.484
 6  18.6  2.5  n           2 f     A        13.4  3.10 -0.601
 7  21.6  3.44 n           2 f     B        16    3.64 -0.196
 8  19.6  2.42 n           2 f     A        12.4  3.28 -0.855
 9  23.6  3    n           2 f     A        12.7  4.01 -1.01 
10  18.7  2    n           2 f     B        10.7  3.11 -1.11 
#  with 147 more rows
```
…
